{
	"info": {
		"_postman_id": "12f576b1-20aa-4472-820a-feae75ae9f8f",
		"name": "money transfer",
		"schema": "https://schema.getpostman.com/json/collection/v2.1.0/collection.json"
	},
	"item": [
		{
			"name": "create account",
			"event": [
				{
					"listen": "test",
					"script": {
						"id": "ccba5663-ecee-4bc0-a393-33ba390892f8",
						"exec": [
							"pm.test(\"Body matches string\", function () {",
							"    pm.expect(pm.response.text()).to.include(\"success\");",
							"});"
						],
						"type": "text/javascript"
					}
				}
			],
			"request": {
				"method": "POST",
				"header": [
					{
						"key": "Content-Type",
						"name": "Content-Type",
						"value": "application/json",
						"type": "text"
					}
				],
				"body": {
					"mode": "raw",
					"raw": "{\n\t\"accountName\": \"Amy\" \n}\n"
				},
				"url": {
					"raw": "localhost:8787/api/money-transfer/account",
					"host": [
						"localhost"
					],
					"port": "8787",
					"path": [
						"api",
						"money-transfer",
						"account"
					]
				}
			},
			"response": []
		},
		{
			"name": "get all accounts",
			"event": [
				{
					"listen": "test",
					"script": {
						"id": "2c6a206a-806c-4d81-9fd1-276f784aa636",
						"exec": [
							"pm.test(\"Body matches string\", function () {",
							"    pm.expect(pm.response.text()).to.include(\"success\");",
							"});"
						],
						"type": "text/javascript"
					}
				}
			],
			"request": {
				"method": "GET",
				"header": [],
				"url": {
					"raw": "localhost:8787/api/money-transfer/accounts",
					"host": [
						"localhost"
					],
					"port": "8787",
					"path": [
						"api",
						"money-transfer",
						"accounts"
					]
				}
			},
			"response": []
		},
		{
			"name": "get account by account no",
			"event": [
				{
					"listen": "test",
					"script": {
						"id": "05b05533-7347-4277-8765-21d9f0ce2899",
						"exec": [
							"pm.test(\"Body matches string\", function () {",
							"    pm.expect(pm.response.text()).to.include(\"success\");",
							"});"
						],
						"type": "text/javascript"
					}
				}
			],
			"request": {
				"method": "GET",
				"header": [],
				"url": {
					"raw": "localhost:8787/api/money-transfer/account/1",
					"host": [
						"localhost"
					],
					"port": "8787",
					"path": [
						"api",
						"money-transfer",
						"account",
						"1"
					]
				}
			},
			"response": []
		},
		{
			"name": "get account balance",
			"event": [
				{
					"listen": "test",
					"script": {
						"id": "be64e6b1-1bd7-475a-9eb5-3616306d06e7",
						"exec": [
							"pm.test(\"Body matches string\", function () {",
							"    pm.expect(pm.response.text()).to.include(\"balance\");",
							"});"
						],
						"type": "text/javascript"
					}
				}
			],
			"request": {
				"method": "GET",
				"header": [],
				"url": {
					"raw": "localhost:8787/api/money-transfer/balance/1",
					"host": [
						"localhost"
					],
					"port": "8787",
					"path": [
						"api",
						"money-transfer",
						"balance",
						"1"
					]
				}
			},
			"response": []
		},
		{
			"name": "deposit",
			"event": [
				{
					"listen": "test",
					"script": {
						"id": "f8202392-bded-4845-84d5-17874a9fbd02",
						"exec": [
							"pm.test(\"Body matches string\", function () {",
							"    pm.expect(pm.response.text()).to.include(\"success\");",
							"});"
						],
						"type": "text/javascript"
					}
				}
			],
			"request": {
				"method": "POST",
				"header": [
					{
						"key": "Content-Type",
						"name": "Content-Type",
						"type": "text",
						"value": "application/json"
					}
				],
				"body": {
					"mode": "raw",
					"raw": "{\n\t\"accountName\" : \"Frank\",\n\t\"amount\":500,\n\t\"currency\": \"GBP\",\n\t\"sign\": \"\"\n}"
				},
				"url": {
					"raw": "localhost:8787/api/money-transfer/deposit/1",
					"host": [
						"localhost"
					],
					"port": "8787",
					"path": [
						"api",
						"money-transfer",
						"deposit",
						"1"
					]
				}
			},
			"response": []
		},
		{
			"name": "withdrawal",
			"event": [
				{
					"listen": "test",
					"script": {
						"id": "59c76845-5cfc-4027-8111-ca9ef6fcf5fb",
						"exec": [
							"pm.test(\"Body matches string\", function () {",
							"    pm.expect(pm.response.text()).to.include(\"success\");",
							"});"
						],
						"type": "text/javascript"
					}
				}
			],
			"request": {
				"method": "POST",
				"header": [
					{
						"key": "Content-Type",
						"name": "Content-Type",
						"value": "application/json",
						"type": "text"
					}
				],
				"body": {
					"mode": "raw",
					"raw": "{\n\t\"accountName\" : \"Frank\",\n\t\"amount\":100,\n\t\"currency\": \"GBP\",\n\t\"sign\": \"\"\n}"
				},
				"url": {
					"raw": "localhost:8787/api/money-transfer/withdrawal/1",
					"host": [
						"localhost"
					],
					"port": "8787",
					"path": [
						"api",
						"money-transfer",
						"withdrawal",
						"1"
					]
				}
			},
			"response": []
		},
		{
			"name": "get acocunt transaction records",
			"event": [
				{
					"listen": "test",
					"script": {
						"id": "2ea0e8bc-77aa-40df-8a90-a1a32b415671",
						"exec": [
							"pm.test(\"Body matches string\", function () {",
							"    pm.expect(pm.response.text()).to.include(\"success\");",
							"});"
						],
						"type": "text/javascript"
					}
				}
			],
			"request": {
				"method": "GET",
				"header": [],
				"url": {
					"raw": "localhost:8787/api/money-transfer/records/1",
					"host": [
						"localhost"
					],
					"port": "8787",
					"path": [
						"api",
						"money-transfer",
						"records",
						"1"
					]
				}
			},
			"response": []
		},
		{
			"name": "money transfer",
			"event": [
				{
					"listen": "test",
					"script": {
						"id": "91dce711-3f52-4136-bb50-152630519bb3",
						"exec": [
							"pm.test(\"Body matches string\", function () {",
							"    pm.expect(pm.response.text()).to.include(\"success\");",
							"});"
						],
						"type": "text/javascript"
					}
				}
			],
			"request": {
				"method": "POST",
				"header": [
					{
						"key": "Content-Type",
						"name": "Content-Type",
						"value": "application/json",
						"type": "text"
					}
				],
				"body": {
					"mode": "raw",
					"raw": "{\n\t\"fromAccountNo\": \"1\", \n\t\"amount\": 100.01, \n\t\"currency\": \"GBP\",\n\t\"toAccountNo\": \"2\",\n\t\"toAccountName\": \"Mary\" ,\n\t\"sign\": \"\"\n}"
				},
				"url": {
					"raw": "localhost:8787/api/money-transfer/transfer",
					"host": [
						"localhost"
					],
					"port": "8787",
					"path": [
						"api",
						"money-transfer",
						"transfer"
					]
				}
			},
			"response": []
		}
	]
}